<?xml version="1.0" encoding="UTF-8" standalone="no"?>
<svg width="115px" height="112px" viewBox="0 0 115 112" version="1.1" xmlns="http://www.w3.org/2000/svg" xmlns:xlink="http://www.w3.org/1999/xlink">
    <!-- Generator: Sketch 39.1 (31720) - http://www.bohemiancoding.com/sketch -->
    <title>Group 5</title>
    <desc>Created with Sketch.</desc>
    <defs></defs>
    <g id="Page-1" stroke="none" stroke-width="1" fill="none" fill-rule="evenodd" opacity="0.272971082">
        <g id="天气_晴-copy-13" transform="translate(-134.000000, -97.000000)" fill="#FFFFFF">
            <g id="Group-5" transform="translate(259.851646, 385.948543) rotate(14.000000) translate(-259.851646, -385.948543) translate(82.851646, 120.948543)">
                <g id="Group-14">
                    <path d="M55.1936915,109.878187 C85.2932104,109.878187 109.693692,85.4777056 109.693692,55.3781868 C109.693692,25.2786679 85.2932104,0.878186779 55.1936915,0.878186779 C25.0941727,0.878186779 0.69369152,25.2786679 0.69369152,55.3781868 C0.69369152,85.4777056 25.0941727,109.878187 55.1936915,109.878187 Z" id="Oval-6"></path>
                </g>
            </g>
        </g>
    </g>
</svg>