<?xml version="1.0" encoding="UTF-8" standalone="no"?>
<svg width="490px" height="542px" viewBox="0 0 490 542" version="1.1" xmlns="http://www.w3.org/2000/svg" xmlns:xlink="http://www.w3.org/1999/xlink">
    <!-- Generator: Sketch 39.1 (31720) - http://www.bohemiancoding.com/sketch -->
    <title>LEFT#16D3EA17-9A40-4630-863F-9F596ADD12A9#B5643222-7EED-4D81-BFED-7EAD7FE7CB50</title>
    <desc>Created with Sketch.</desc>
    <defs></defs>
    <g id="Page-1" stroke="none" stroke-width="1" fill="none" fill-rule="evenodd" fill-opacity="0.6" opacity="0.3">
        <g id="天气_雾" transform="translate(-590.000000, -76.000000)" fill="#FFFFFF">
            <g id="背景" transform="translate(-422.000000, -228.000000)">
                <g id="Group-5" transform="translate(1012.000000, 0.000000)">
                    <path d="M70.7066521,0.252167363 L70.7066521,0 L76.422349,0 L77.1678747,0 L77.9134004,0 L672.594393,0 L672.594393,154.074259 L81.0197575,154.074259 C79.6529604,154.200343 78.4104175,154.200343 77.0436204,154.200343 C75.6768233,154.200343 74.4342805,154.200343 73.0674834,154.074259 L70.5823978,154.074259 L70.5823978,153.822091 C31.5665533,150.543916 1,117.383907 1,77.0371294 C1.12425428,36.6903513 31.6908076,3.53034308 70.7066521,0.252167363 L70.7066521,0.252167363 M337.356341,541.529412 C334.498492,541.529412 331.640644,541.655496 328.782795,542.033747 L124.508756,542.033747 C122.520688,542.159831 120.408365,542.159831 118.420296,542.159831 C53.5595612,542.159831 1,488.826433 1,423.010752 C1,358.329823 51.8200012,305.626844 115.189685,303.861672 L115.189685,303.861672 L116.059465,303.861672 L118.420296,303.861672 L120.781128,303.861672 L656.814099,303.861672 L656.814099,303.735589 C696.202707,302.348668 727.763294,269.440827 727.763294,229.094049 C727.763294,188.747271 696.202707,155.83943 656.814099,154.45251 L656.814099,154.074259 L449.557957,154.074259 C448.19116,154.200343 446.948617,154.200343 445.58182,154.200343 C403.583873,154.200343 369.5382,119.653414 369.5382,77.0371294 C369.5382,35.1773471 402.465584,1.13475313 443.469497,0 L443.469497,0 L444.836294,0 L445.58182,0 L446.327346,0 L1045.35724,0 L1045.35724,146.887489 L1603.25896,146.887489 L1603.25896,301.087831 L1045.35724,301.087831 L1045.35724,303.987756 L1045.35724,303.987756 L1045.35724,304.618175 C1104.37802,310.922359 1150.35211,361.607999 1150.35211,423.136835 C1150.35211,484.665672 1104.37802,535.351312 1045.35724,541.655496 L1045.35724,542.159831 L1039.02027,542.159831 C1037.0322,542.285914 1034.91988,542.285914 1032.93181,542.285914 C1030.94374,542.285914 1028.83142,542.285914 1026.84335,542.159831 L737.20662,542.159831 C734.348771,541.78158 731.615177,541.655496 728.633074,541.655496 C688.001924,541.655496 654.950285,575.067671 654.950285,616.423119 C654.950285,657.652483 687.87767,691.064658 728.384565,691.190742 L728.384565,691.821161 L786.784078,691.821161 L786.784078,691.821161 L787.778112,691.821161 C829.776059,691.821161 863.821733,726.368089 863.821733,768.984374 C863.821733,811.600658 829.776059,846.147587 787.778112,846.147587 C786.411315,846.147587 785.168772,846.147587 783.801975,846.021503 L190.860543,846.021503 C189.493745,846.147587 188.251203,846.147587 186.884406,846.147587 C144.886458,846.147587 110.840785,811.600658 110.840785,768.984374 C110.840785,727.124591 143.76817,693.081997 184.772083,691.947244 L184.772083,691.947244 L186.13888,691.947244 L186.884406,691.947244 L187.629931,691.947244 L339.717172,691.947244 L339.717172,691.190742 C379.105779,689.803822 410.666367,656.895981 410.666367,616.549203 C410.914876,575.067671 377.987491,541.529412 337.356341,541.529412 L337.356341,541.529412" id="Shape-Copy"></path>
                </g>
            </g>
        </g>
    </g>
</svg>