<?xml version="1.0" encoding="UTF-8" standalone="no"?>
<svg width="1435px" height="768px" viewBox="0 0 1435 768" version="1.1" xmlns="http://www.w3.org/2000/svg" xmlns:xlink="http://www.w3.org/1999/xlink">
    <!-- Generator: Sketch 39.1 (31720) - http://www.bohemiancoding.com/sketch -->
    <title>Shape</title>
    <desc>Created with Sketch.</desc>
    <defs>
        <linearGradient x1="50%" y1="0%" x2="50%" y2="100%" id="linearGradient-1">
            <stop stop-color="#838A94" offset="0%"></stop>
            <stop stop-color="#838A94" stop-opacity="0.12" offset="100%"></stop>
        </linearGradient>
    </defs>
    <g id="Page-1" stroke="none" stroke-width="1" fill="none" fill-rule="evenodd" opacity="0.24">
        <path d="M641.458979,652.170181 L143.490101,652.170181 L143.490101,767.90529 L638.004446,767.90529 C639.031469,768 639.965127,768 640.99215,768 C642.019173,768 642.952831,768 643.979854,767.90529 L645.847169,767.90529 C675.164015,765.253422 698.13199,740.344802 698.13199,710.037736 C698.038625,679.73067 675.07065,654.82205 645.753803,652.3596 L641.458979,652.170181 Z M1188.48892,407.156493 L1341.98222,407.156493 C1343.47607,407.251202 1345.06329,407.251202 1346.55714,407.251202 C1395.29406,407.251202 1434.78777,367.189049 1434.78777,317.750647 C1434.78777,269.164632 1396.60118,229.576027 1348.98465,228.250092 L885.983883,228.250092 C856.38694,227.113578 832.672039,202.394377 832.672039,172.08731 C832.672039,141.780244 856.38694,117.061043 885.983883,116.019238 L1041.71796,115.735109 C1076.26329,115.829819 1101.8455,89.8793933 1101.8455,57.8675546 C1101.8455,26.4239734 1077.10358,0.852386238 1046.29288,0 L0,0 L0,110.336663 L0.787773532,226.166482 L420,226.166482 L420,228.344802 C375.651268,233.553829 341.10594,271.627081 341.10594,317.845357 C341.10594,364.063633 375.651268,402.136885 420,406.872364 L424.761653,407.251202 C426.255505,407.345912 427.842723,407.345912 429.336575,407.345912 C430.830427,407.345912 432.417645,407.345912 433.911497,407.251202 L741.547065,407.251202 C743.694477,406.967074 745.748524,406.872364 747.989302,406.872364 C778.519903,406.872364 803.355193,431.970403 803.355193,463.035146 C803.355193,494.005179 778.613268,519.103219 748.176033,519.197928 L704.29413,519.671476 C671.98958,519.671476 646.407364,545.621902 646.407364,577.63374 C646.407364,609.645579 671.98958,635.596004 703.547204,635.596004 C704.574227,635.596004 1292.1249,635.501295 1292.1249,635.501295 C1326.67023,635.596004 1352.25245,609.645579 1352.25245,577.63374 C1352.25245,546.190159 1327.51052,520.618572 1296.69983,519.766186 L1180.27273,519.766186 C1150.67579,518.156123 1126.96089,493.436922 1126.96089,463.129856 C1126.77416,431.970403 1151.51608,406.777654 1182.04668,406.777654 C1184.1941,406.777654 1186.34151,406.872364 1188.48892,407.156493 Z" id="Shape" fill="url(#linearGradient-1)"></path>
    </g>
</svg>