<?xml version="1.0" encoding="UTF-8" standalone="no"?>
<svg width="514px" height="319px" viewBox="0 0 514 319" version="1.1" xmlns="http://www.w3.org/2000/svg" xmlns:xlink="http://www.w3.org/1999/xlink">
    <!-- Generator: Sketch 39.1 (31720) - http://www.bohemiancoding.com/sketch -->
    <title>Group 4</title>
    <desc>Created with Sketch.</desc>
    <defs>
        <linearGradient x1="22.0443881%" y1="38.7089712%" x2="82.9031611%" y2="90.7482897%" id="linearGradient-1">
            <stop stop-color="#FFFFFF" stop-opacity="0.3" offset="0%"></stop>
            <stop stop-color="#B3DBFD" stop-opacity="0.12" offset="57.5179839%"></stop>
            <stop stop-color="#B6DAF8" stop-opacity="0.2" offset="100%"></stop>
        </linearGradient>
    </defs>
    <g id="Page-1" stroke="none" stroke-width="1" fill="none" fill-rule="evenodd" opacity="0.838036381">
        <g id="天气_晴-copy-13" transform="translate(1.000000, 2.000000)" fill="url(#linearGradient-1)">
            <g id="Group-4" transform="translate(-804.000000, -995.000000)">
                <g id="Group-12" transform="translate(559.000000, 549.000000)">
                    <path d="M379.360804,758.22848 C588.603644,758.22848 758.22848,588.603644 758.22848,379.360804 C758.22848,170.117964 588.603644,0.493128159 379.360804,0.493128159 C170.117964,0.493128159 0.493128159,170.117964 0.493128159,379.360804 C0.493128159,588.603644 170.117964,758.22848 379.360804,758.22848 Z" id="Oval-2"></path>
                </g>
            </g>
        </g>
    </g>
</svg>