<?xml version="1.0" encoding="UTF-8" standalone="no"?>
<svg width="1083px" height="879px" viewBox="0 0 1083 879" version="1.1" xmlns="http://www.w3.org/2000/svg" xmlns:xlink="http://www.w3.org/1999/xlink">
    <!-- Generator: Sketch 39.1 (31720) - http://www.bohemiancoding.com/sketch -->
    <title>天气_晴 copy 13</title>
    <desc>Created with Sketch.</desc>
    <defs>
        <linearGradient x1="34.6128842%" y1="32.8123427%" x2="88.5948835%" y2="118.050711%" id="linearGradient-1">
            <stop stop-color="#BDDDF8" stop-opacity="0.12" offset="0%"></stop>
            <stop stop-color="#BDDDF9" stop-opacity="0.14" offset="0%"></stop>
            <stop stop-color="#BDDEF9" stop-opacity="0" offset="100%"></stop>
        </linearGradient>
    </defs>
    <g id="Page-1" stroke="none" stroke-width="1" fill="none" fill-rule="evenodd">
        <g id="天气_晴-copy-13" transform="translate(1.000000, 2.000000)" fill="url(#linearGradient-1)">
            <g id="Group-4" transform="translate(-804.000000, -995.000000)">
                <g id="Group-9">
                    <path d="M943.123934,1866.20572 C1463.92845,1866.20572 1886.12393,1448.61427 1886.12393,933.489105 C1886.12393,418.363943 1463.92845,0.772489797 943.123934,0.772489797 C422.319415,0.772489797 0.123934101,418.363943 0.123934101,933.489105 C0.123934101,1448.61427 422.319415,1866.20572 943.123934,1866.20572 Z" id="Oval-2"></path>
                </g>
            </g>
        </g>
    </g>
</svg>