<?xml version="1.0" encoding="UTF-8" standalone="no"?>
<svg width="66px" height="66px" viewBox="0 0 66 66" version="1.1" xmlns="http://www.w3.org/2000/svg" xmlns:xlink="http://www.w3.org/1999/xlink">
    <!-- Generator: Sketch 39.1 (31720) - http://www.bohemiancoding.com/sketch -->
    <title>背景</title>
    <desc>Created with Sketch.</desc>
    <defs></defs>
    <g id="Page-1" stroke="none" stroke-width="1" fill="none" fill-rule="evenodd" fill-opacity="0.05">
        <g id="天气_浮尘" transform="translate(-747.000000, -149.000000)" fill="#000000">
            <g id="背景" transform="translate(0.000000, -24.000000)">
                <g id="Group-4" transform="translate(747.000000, 173.000000)">
                    <path d="M33,63 C49.5685425,63 63,49.5685425 63,33 C63,16.4314575 49.5685425,3 33,3 C16.4314575,3 3,16.4314575 3,33 C3,49.5685425 16.4314575,63 33,63 Z" id="Oval-2"></path>
                </g>
            </g>
        </g>
    </g>
</svg>