<?xml version="1.0" encoding="UTF-8" standalone="no"?>
<svg width="72px" height="72px" viewBox="0 0 72 72" version="1.1" xmlns="http://www.w3.org/2000/svg" xmlns:xlink="http://www.w3.org/1999/xlink">
    <!-- Generator: Sketch 39.1 (31720) - http://www.bohemiancoding.com/sketch -->
    <title>组1</title>
    <desc>Created with Sketch.</desc>
    <defs></defs>
    <g id="Page-1" stroke="none" stroke-width="1" fill="none" fill-rule="evenodd" opacity="0.7">
        <g id="删除" transform="translate(-951.000000, -390.000000)">
            <g id="组1" transform="translate(-114.000000, 246.000000)">
                <g id="ic_delete" transform="translate(1065.000000, 144.000000)">
                    <g id="Page-1" transform="translate(13.000000, 13.000000)">
                        <path d="M39.5173,7.1103 L39.5173,45.5943 C39.5173,45.7883 39.3603,45.9443 39.1673,45.9443 L7.5593,45.9443 C7.3653,45.9443 7.2093,45.7883 7.2093,45.5943 L7.2093,14.4623" id="Stroke-1" stroke="#242424" stroke-width="3" stroke-linecap="round"></path>
                        <path d="M32.3702,7.1103 L29.1692,0.8803 C29.0502,0.6463 28.8092,0.5003 28.5472,0.5003 L17.8712,0.5003 C17.6082,0.5003 17.3662,0.6483 17.2472,0.8833 L14.0882,7.1103" id="Stroke-3" stroke="#242424" stroke-width="3" stroke-linecap="round"></path>
                        <path d="M0.5,7.1103 L45.958,7.1103" id="Stroke-5" stroke="#242424" stroke-width="3" stroke-linecap="round"></path>
                        <path d="M22,35.6367188 L22,20.5057403 C22,19.6741429 22.6657972,19 23.5,19 L23.5,19 C24.3284271,19 25,19.6762201 25,20.4908981 L25,36.5091019 C25,37.3325022 24.3342028,38 23.5,38 L23.5,38 C22.6715729,38 22,37.3290999 22,36.503298 L22,35.6367188 Z" id="Rectangle-4" fill="#242424"></path>
                    </g>
                    <rect id="Rectangle-5" x="0" y="0" width="72" height="72"></rect>
                </g>
            </g>
        </g>
    </g>
</svg>