<?xml version="1.0" encoding="UTF-8" standalone="no"?>
<svg width="1150px" height="545px" viewBox="0 0 1150 545" version="1.1" xmlns="http://www.w3.org/2000/svg" xmlns:xlink="http://www.w3.org/1999/xlink">
    <!-- Generator: Sketch 39.1 (31720) - http://www.bohemiancoding.com/sketch -->
    <title>Shape Copy</title>
    <desc>Created with Sketch.</desc>
    <defs>
        <linearGradient x1="50%" y1="0%" x2="50%" y2="100%" id="linearGradient-1">
            <stop stop-color="#838A94" offset="0%"></stop>
            <stop stop-color="#838A94" stop-opacity="0.12" offset="100%"></stop>
        </linearGradient>
    </defs>
    <g id="Page-1" stroke="none" stroke-width="1" fill="none" fill-rule="evenodd" opacity="0.24">
        <path d="M327.729818,240.903889 L123.488794,240.903889 C121.501047,241.029951 119.389066,241.029951 117.401318,241.029951 C52.5510663,241.029951 0,187.705856 0,121.901654 C0,57.2320072 50.8117875,4.53822083 114.171229,2.77335717 L119.761768,2.77335717 L655.708104,2.77335717 C695.090345,1.2606169 1044.18845,0 1044.18845,0 L1044.18845,2.89941886 C1103.19969,9.8328118 1149.16634,60.5096111 1149.16634,122.027716 C1149.16634,183.54582 1103.19969,234.22262 1044.18845,240.525704 L1037.8525,241.029951 C1035.86475,241.156013 1033.75277,241.156013 1031.76503,241.156013 C1029.77728,241.156013 1027.6653,241.156013 1025.67755,241.029951 L736.087631,241.029951 C733.230244,240.651766 730.497092,240.525704 727.515471,240.525704 C686.890888,240.525704 653.844591,273.932052 653.844591,315.280286 C653.844591,356.502459 686.766654,389.908806 727.267003,390.034868 L785.657076,390.665177 C828.642109,390.665177 862.68228,425.20608 862.68228,467.814931 C862.68228,510.423782 828.642109,544.964685 786.65095,544.964685 C785.284374,544.964685 189.829857,544.838623 189.829857,544.838623 C143.863203,544.964685 109.823032,510.423782 109.823032,467.814931 C109.823032,425.96245 142.745095,391.925793 183.742381,390.791238 L338.662427,390.791238 C378.044668,388.64819 409.600155,355.746089 409.600155,315.406348 C409.848623,273.932052 376.926561,240.399642 336.301978,240.399642 C333.444591,240.399642 330.587204,240.525704 327.729818,240.903889 Z" id="Shape-Copy" fill="url(#linearGradient-1)"></path>
    </g>
</svg>